clustering_week 13 Ip: Part 2
…
converting the data into a tibble for easy manupulation

#For ease in analysis,we convert the data into a tibble
df_dataset<-as_tibble(customer_dataset) # there is suggestion to use as_tibble instead of as.tibble.
df_dataset

## Warning: `...` is not empty.
## 
## We detected these problematic arguments:
## * `needs_dots`
## 
## These dots only exist to allow future extensions and should be empty.
## Did you misspecify an argument?

## # A tibble: 12,330 x 18
##    Administrative Administrative_~ Informational Informational_D~ ProductRelated
##             <int>            <dbl>         <int>            <dbl>          <int>
##  1              0                0             0                0              1
##  2              0                0             0                0              2
##  3              0               -1             0               -1              1
##  4              0                0             0                0              2
##  5              0                0             0                0             10
##  6              0                0             0                0             19
##  7              0               -1             0               -1              1
##  8              1               -1             0               -1              1
##  9              0                0             0                0              2
## 10              0                0             0                0              3
## # ... with 12,320 more rows, and 13 more variables:
## #   ProductRelated_Duration <dbl>, BounceRates <dbl>, ExitRates <dbl>,
## #   PageValues <dbl>, SpecialDay <dbl>, Month <chr>, OperatingSystems <int>,
## #   Browser <int>, Region <int>, TrafficType <int>, VisitorType <chr>,
## #   Weekend <lgl>, Revenue <lgl>
…
#Identifying Duplicated Data
#
duplicated_rows <- df_dataset[duplicated(df_dataset),]
duplicated_rows

## Warning: `...` is not empty.
## 
## We detected these problematic arguments:
## * `needs_dots`
## 
## These dots only exist to allow future extensions and should be empty.
## Did you misspecify an argument?

## # A tibble: 117 x 18
##    Administrative Administrative_~ Informational Informational_D~ ProductRelated
##             <int>            <dbl>         <int>            <dbl>          <int>
##  1              0                0             0                0              1
##  2              0                0             0                0              1
##  3              0                0             0                0              1
##  4              0                0             0                0              1
##  5              0                0             0                0              1
##  6              0                0             0                0              1
##  7              0                0             0                0              1
##  8              0                0             0                0              1
##  9              0                0             0                0              2
## 10              0                0             0                0              1
## # ... with 107 more rows, and 13 more variables: ProductRelated_Duration <dbl>,
## #   BounceRates <dbl>, ExitRates <dbl>, PageValues <dbl>, SpecialDay <dbl>,
## #   Month <chr>, OperatingSystems <int>, Browser <int>, Region <int>,
## #   TrafficType <int>, VisitorType <chr>, Weekend <lgl>, Revenue <lgl>
…
#
#Checking the data types of the columns
#
df_num<- df_dataset %>% select_if(is.numeric)
df_num

## Warning: `...` is not empty.
## 
## We detected these problematic arguments:
## * `needs_dots`
## 
## These dots only exist to allow future extensions and should be empty.
## Did you misspecify an argument?

## # A tibble: 12,199 x 10
##    Administrative Administrative_~ Informational Informational_D~ ProductRelated
##             <int>            <dbl>         <int>            <dbl>          <int>
##  1              0                0             0                0              1
##  2              0                0             0                0              2
##  3              0               -1             0               -1              1
##  4              0                0             0                0              2
##  5              0                0             0                0             10
##  6              0                0             0                0             19
##  7              0               -1             0               -1              1
##  8              1               -1             0               -1              1
##  9              0                0             0                0              2
## 10              0                0             0                0              3
## # ... with 12,189 more rows, and 5 more variables:
## #   ProductRelated_Duration <dbl>, BounceRates <dbl>, ExitRates <dbl>,
## #   PageValues <dbl>, SpecialDay <dbl>
…
## Warning: `...` is not empty.
## 
## We detected these problematic arguments:
## * `needs_dots`
## 
## These dots only exist to allow future extensions and should be empty.
## Did you misspecify an argument?

## # A tibble: 12,199 x 8
##    Month OperatingSystems Browser Region TrafficType VisitorType Weekend Revenue
##    <fct> <fct>            <fct>   <fct>  <fct>       <fct>       <fct>   <fct>  
##  1 Feb   1                1       1      1           Returning_~ FALSE   FALSE  
##  2 Feb   2                2       1      2           Returning_~ FALSE   FALSE  
##  3 Feb   4                1       9      3           Returning_~ FALSE   FALSE  
##  4 Feb   3                2       2      4           Returning_~ FALSE   FALSE  
##  5 Feb   3                3       1      4           Returning_~ TRUE    FALSE  
##  6 Feb   2                2       1      3           Returning_~ FALSE   FALSE  
##  7 Feb   2                4       3      3           Returning_~ FALSE   FALSE  
##  8 Feb   1                2       1      5           Returning_~ TRUE    FALSE  
##  9 Feb   2                2       2      3           Returning_~ FALSE   FALSE  
## 10 Feb   2                4       1      2           Returning_~ FALSE   FALSE  
## # ... with 12,189 more rows
…
