William DSC week 13 IP with R: Part 1
…
converting the data into a tibble for easy manupulation

#For ease in analysis,we convert the data into a tibble
my_dataset<- as_tibble(advertising_dataset) # there is suggestion to use as_tibble instead of as.tibble.
my_dataset

## Warning: `...` is not empty.
## 
## We detected these problematic arguments:
## * `needs_dots`
## 
## These dots only exist to allow future extensions and should be empty.
## Did you misspecify an argument?

## # A tibble: 1,000 x 10
##    Daily.Time.Spen~   Age Area.Income Daily.Internet.~ Ad.Topic.Line City   Male
##               <dbl> <int>       <dbl>            <dbl> <chr>         <chr> <int>
##  1             69.0    35      61834.             256. Cloned 5thge~ Wrig~     0
##  2             80.2    31      68442.             194. Monitored na~ West~     1
##  3             69.5    26      59786.             236. Organic bott~ Davi~     0
##  4             74.2    29      54806.             246. Triple-buffe~ West~     1
##  5             68.4    35      73890.             226. Robust logis~ Sout~     0
##  6             60.0    23      59762.             227. Sharable cli~ Jami~     1
##  7             88.9    33      53853.             208. Enhanced ded~ Bran~     0
##  8             66      48      24593.             132. Reactive loc~ Port~     1
##  9             74.5    30      68862              222. Configurable~ West~     1
## 10             69.9    20      55642.             184. Mandatory ho~ Rami~     1
## # ... with 990 more rows, and 3 more variables: Country <chr>, Timestamp <chr>,
## #   Clicked.on.Ad <int>
…
#showing these unique items
#
unique_items <- my_dataset[!duplicated(my_dataset), ]
unique_items

## Warning: `...` is not empty.
## 
## We detected these problematic arguments:
## * `needs_dots`
## 
## These dots only exist to allow future extensions and should be empty.
## Did you misspecify an argument?

## # A tibble: 1,000 x 10
##    Daily.Time.Spen~   Age Area.Income Daily.Internet.~ Ad.Topic.Line City   Male
##               <dbl> <int>       <dbl>            <dbl> <chr>         <chr> <int>
##  1             69.0    35      61834.             256. Cloned 5thge~ Wrig~     0
##  2             80.2    31      68442.             194. Monitored na~ West~     1
##  3             69.5    26      59786.             236. Organic bott~ Davi~     0
##  4             74.2    29      54806.             246. Triple-buffe~ West~     1
##  5             68.4    35      73890.             226. Robust logis~ Sout~     0
##  6             60.0    23      59762.             227. Sharable cli~ Jami~     1
##  7             88.9    33      53853.             208. Enhanced ded~ Bran~     0
##  8             66      48      24593.             132. Reactive loc~ Port~     1
##  9             74.5    30      68862              222. Configurable~ West~     1
## 10             69.9    20      55642.             184. Mandatory ho~ Rami~     1
## # ... with 990 more rows, and 3 more variables: Country <chr>, Timestamp <chr>,
## #   Clicked.on.Ad <int>
…
#Checking the data types of the columns
#
Numeric<- my_dataset %>% select_if(is.numeric)
Numeric

## Warning: `...` is not empty.
## 
## We detected these problematic arguments:
## * `needs_dots`
## 
## These dots only exist to allow future extensions and should be empty.
## Did you misspecify an argument?

## # A tibble: 1,000 x 6
##    Daily.Time.Spent.on~   Age Area.Income Daily.Internet.Us~  Male Clicked.on.Ad
##                   <dbl> <int>       <dbl>              <dbl> <int>         <int>
##  1                 69.0    35      61834.               256.     0             0
##  2                 80.2    31      68442.               194.     1             0
##  3                 69.5    26      59786.               236.     0             0
##  4                 74.2    29      54806.               246.     1             0
##  5                 68.4    35      73890.               226.     0             0
##  6                 60.0    23      59762.               227.     1             0
##  7                 88.9    33      53853.               208.     0             0
##  8                 66      48      24593.               132.     1             1
##  9                 74.5    30      68862                222.     1             0
## 10                 69.9    20      55642.               184.     1             0
## # ... with 990 more rows
…
##3.2a Identifying the categorical class in the data

#Checking the data types of the columns
Categorical=my_dataset %>% select_if(is.character)
Categorical

## Warning: `...` is not empty.
## 
## We detected these problematic arguments:
## * `needs_dots`
## 
## These dots only exist to allow future extensions and should be empty.
## Did you misspecify an argument?

## # A tibble: 1,000 x 4
##    Ad.Topic.Line                     City            Country   Timestamp        
##    <chr>                             <chr>           <chr>     <chr>            
##  1 Cloned 5thgeneration orchestrati~ Wrightburgh     Tunisia   2016-03-27 00:53~
##  2 Monitored national standardizati~ West Jodi       Nauru     2016-04-04 01:39~
##  3 Organic bottom-line service-desk  Davidton        San Mari~ 2016-03-13 20:35~
##  4 Triple-buffered reciprocal time-~ West Terrifurt  Italy     2016-01-10 02:31~
##  5 Robust logistical utilization     South Manuel    Iceland   2016-06-03 03:36~
##  6 Sharable client-driven software   Jamieberg       Norway    2016-05-19 14:30~
##  7 Enhanced dedicated support        Brandonstad     Myanmar   2016-01-28 20:59~
##  8 Reactive local challenge          Port Jefferybu~ Australia 2016-03-07 01:40~
##  9 Configurable coherent function    West Colin      Grenada   2016-04-18 09:33~
## 10 Mandatory homogeneous architectu~ Ramirezton      Ghana     2016-07-11 01:42~
## # ... with 990 more rows
…
4.1 univariate Analysis for Numerical Data

#previewing the data types of the columns
#
Numeric

## Warning: `...` is not empty.
## 
## We detected these problematic arguments:
## * `needs_dots`
## 
## These dots only exist to allow future extensions and should be empty.
## Did you misspecify an argument?

## # A tibble: 1,000 x 6
##    Daily.Time.Spent.on~   Age Area.Income Daily.Internet.Us~  Male Clicked.on.Ad
##                   <dbl> <int>       <dbl>              <dbl> <int>         <int>
##  1                 69.0    35      61834.               256.     0             0
##  2                 80.2    31      68442.               194.     1             0
##  3                 69.5    26      59786.               236.     0             0
##  4                 74.2    29      54806.               246.     1             0
##  5                 68.4    35      73890.               226.     0             0
##  6                 60.0    23      59762.               227.     1             0
##  7                 88.9    33      53853.               208.     0             0
##  8                 66      48      24593.               132.     1             1
##  9                 74.5    30      68862                222.     1             0
## 10                 69.9    20      55642.               184.     1             0
## # ... with 990 more rows
…
library(dplyr)    # alternatively, this also loads %>%
#
#Checking the data types of the categorical columns
Categorical=my_dataset %>% select_if(is.character)
Categorical

## Warning: `...` is not empty.
## 
## We detected these problematic arguments:
## * `needs_dots`
## 
## These dots only exist to allow future extensions and should be empty.
## Did you misspecify an argument?

## # A tibble: 1,000 x 4
##    Ad.Topic.Line                     City            Country   Timestamp        
##    <chr>                             <chr>           <chr>     <chr>            
##  1 Cloned 5thgeneration orchestrati~ Wrightburgh     Tunisia   2016-03-27 00:53~
##  2 Monitored national standardizati~ West Jodi       Nauru     2016-04-04 01:39~
##  3 Organic bottom-line service-desk  Davidton        San Mari~ 2016-03-13 20:35~
##  4 Triple-buffered reciprocal time-~ West Terrifurt  Italy     2016-01-10 02:31~
##  5 Robust logistical utilization     South Manuel    Iceland   2016-06-03 03:36~
##  6 Sharable client-driven software   Jamieberg       Norway    2016-05-19 14:30~
##  7 Enhanced dedicated support        Brandonstad     Myanmar   2016-01-28 20:59~
##  8 Reactive local challenge          Port Jefferybu~ Australia 2016-03-07 01:40~
##  9 Configurable coherent function    West Colin      Grenada   2016-04-18 09:33~
## 10 Mandatory homogeneous architectu~ Ramirezton      Ghana     2016-07-11 01:42~
## # ... with 990 more rows
…
# getting the numerical columns from the new and revised dataframe
#Checking the data types of the columns
#
New_numeric<- my_dataset %>% select_if(is.numeric)
New_numeric

## Warning: `...` is not empty.
## 
## We detected these problematic arguments:
## * `needs_dots`
## 
## These dots only exist to allow future extensions and should be empty.
## Did you misspecify an argument?

## # A tibble: 1,000 x 5
##    Daily.Time.Spent.on.Site   Age Area.Income  Male Clicked.on.Ad
##                       <dbl> <int>       <dbl> <int>         <int>
##  1                     69.0    35      61834.     0             0
##  2                     80.2    31      68442.     1             0
##  3                     69.5    26      59786.     0             0
##  4                     74.2    29      54806.     1             0
##  5                     68.4    35      73890.     0             0
##  6                     60.0    23      59762.     1             0
##  7                     88.9    33      53853.     0             0
##  8                     66      48      24593.     1             1
##  9                     74.5    30      68862      1             0
## 10                     69.9    20      55642.     1             0
## # ... with 990 more rows
…
new_dataset$Country <- as.numeric(new_dataset$Country)

new_dataset

## Warning: `...` is not empty.
## 
## We detected these problematic arguments:
## * `needs_dots`
## 
## These dots only exist to allow future extensions and should be empty.
## Did you misspecify an argument?

## # A tibble: 1,000 x 7
##    Daily.Time.Spent~   Age Area.Income Ad.Topic.Line  Male Country Clicked.on.Ad
##                <dbl> <int>       <dbl>         <dbl> <int>   <dbl>         <int>
##  1              69.0    35      61834.            92     0     216             0
##  2              80.2    31      68442.           465     1     148             0
##  3              69.5    26      59786.           567     0     185             0
##  4              74.2    29      54806.           904     1     104             0
##  5              68.4    35      73890.           767     0      97             0
##  6              60.0    23      59762.           806     1     159             0
##  7              88.9    33      53853.           223     0     146             0
##  8              66      48      24593.           724     1      13             1
##  9              74.5    30      68862            108     1      83             0
## 10              69.9    20      55642.           455     1      79             0
## # ... with 990 more rows
…
